[{
  "relation": ["delegate_permission/common.handle_all_urls"],
  "target": {
    "namespace": "android_app",
    "package_name": "com.square_enix.android_googleplay.FullmetalAlchemistMobilejp",
    "sha256_cert_fingerprints":
    ["2B:9F:E4:7A:F3:A3:8C:E4:29:7C:3D:33:DE:3D:A4:AB:67:43:A2:D3:80:9C:B8:43:AB:63:E3:2C:E0:07:10:64"]
  }
}]